Take-home Exercise 1
…
2.Data preparation and plotting for the first dataset: Superstore-2021.xls

2.1 Import the data

The data is imported with sheet Orders and Returns stored in different variables. The two tables are joined using left_join function of dpylr package based on Order ID.

orders <- read_xls("data/Superstore-2021.xls", sheet = "Orders")
returns <- read_xls("data/Superstore-2021.xls", sheet = "Returns")

joined_tab <- left_join(returns, orders, by = c('Order ID'='Order ID'))
joined_tab

# A tibble: 3,226 x 22
   Returned `Order ID`     `Row ID` `Order Date`       
   <chr>    <chr>             <dbl> <dttm>             
 1 Yes      CA-2018-100762     6315 2018-11-24 00:00:00
 2 Yes      CA-2018-100762     6316 2018-11-24 00:00:00
 3 Yes      CA-2018-100762     6317 2018-11-24 00:00:00
 4 Yes      CA-2018-100762     6318 2018-11-24 00:00:00
 5 Yes      CA-2018-100762     6315 2018-11-24 00:00:00
 6 Yes      CA-2018-100762     6316 2018-11-24 00:00:00
 7 Yes      CA-2018-100762     6317 2018-11-24 00:00:00
 8 Yes      CA-2018-100762     6318 2018-11-24 00:00:00
 9 Yes      CA-2018-100762     6315 2018-11-24 00:00:00
10 Yes      CA-2018-100762     6316 2018-11-24 00:00:00
# ... with 3,216 more rows, and 18 more variables: Ship Date <dttm>,
#   Ship Mode <chr>, Customer ID <chr>, Customer Name <chr>,
#   Segment <chr>, Country/Region <chr>, City <chr>, State <chr>,
#   Postal Code <dbl>, Region <chr>, Product ID <chr>,
#   Category <chr>, Sub-Category <chr>, Product Name <chr>,
#   Sales <dbl>, Quantity <dbl>, Discount <dbl>, Profit <dbl>
…
